owner = Y09
controller = Y09
add_core = Y09
add_core = Z58
culture = forest_yan
religion = righteous_path

hre = no

base_tax = 4
base_production = 4
base_manpower = 3

trade_goods = paper

capital = ""

is_city = yes
fort_15th = yes

center_of_trade = 1